500 1 161 79 561 257
600 1 160 70 561 255
700 1 151 55 561 252
800 1 151 45 561 250
900 1 148 35 561 245
1000 1 148 23 561 243
1100 1 148 22 561 241
1200 1 147 17 561 235
1300 1 144 15 561 231
1400 1 141 14 561 227
1500 1 138 12 561 218
1600 1 136 10 561 213
1700 1 131 8 561 202
1800 1 123 7 561 192
1900 1 118 7 561 185
2000 1 118 4 561 179
2100 1 114 3 561 173
2200 1 109 2 561 165
2300 1 105 2 561 156
2400 1 101 2 561 150
2500 1 97 2 561 146
2600 1 94 2 561 143
2700 1 92 2 561 140
2800 1 89 2 561 134
2900 1 87 2 561 127
3000 1 84 2 561 123
3100 1 79 1 561 115
3200 1 75 1 561 109
3300 1 69 0 561 103
3400 1 67 0 561 98
3500 1 66 0 561 95
3600 1 64 0 561 93
3700 1 59 0 561 84
3800 1 52 0 561 75
3900 1 49 0 561 71
4000 1 49 0 561 71
500 2 253 150 561 383
600 2 252 131 561 381
700 2 242 106 561 377
800 2 242 88 561 375
900 2 238 70 561 367
1000 2 237 48 561 363
1100 2 237 44 561 361
1200 2 236 34 561 353
1300 2 231 31 561 347
1400 2 225 27 561 338
1500 2 220 22 561 327
1600 2 217 18 561 319
1700 2 212 14 561 308
1800 2 203 11 561 298
1900 2 196 10 561 287
2000 2 192 6 561 277
2100 2 187 5 561 269
2200 2 181 4 561 258
2300 2 174 4 561 245
2400 2 168 4 561 236
2500 2 161 3 561 229
2600 2 157 3 561 223
2700 2 155 3 561 218
2800 2 150 3 561 210
2900 2 146 3 561 200
3000 2 143 3 561 195
3100 2 133 1 561 184
3200 2 128 1 561 177
3300 2 120 0 561 167
3400 2 115 0 561 158
3500 2 112 0 561 153
3600 2 107 0 561 148
3700 2 100 0 561 137
3800 2 92 0 561 127
3900 2 90 0 561 121
4000 2 87 0 561 118
500 3 277 223 561 427
600 3 276 194 561 425
700 3 265 158 561 420
800 3 265 132 561 418
900 3 261 106 561 410
1000 3 260 81 561 406
1100 3 260 68 561 404
1200 3 258 57 561 395
1300 3 253 53 561 389
1400 3 247 41 561 379
1500 3 242 35 561 368
1600 3 239 29 561 359
1700 3 233 23 561 346
1800 3 223 19 561 335
1900 3 215 15 561 322
2000 3 212 9 561 311
2100 3 206 7 561 302
2200 3 200 5 561 291
2300 3 192 5 561 277
2400 3 186 5 561 268
2500 3 179 3 561 260
2600 3 175 3 561 254
2700 3 172 3 561 248
2800 3 167 3 561 240
2900 3 163 3 561 230
3000 3 160 3 561 225
3100 3 149 1 561 212
3200 3 143 1 561 204
3300 3 135 0 561 194
3400 3 130 0 561 185
3500 3 127 0 561 180
3600 3 121 0 561 174
3700 3 113 0 561 161
3800 3 105 0 561 150
3900 3 101 0 561 141
4000 3 98 0 561 138
500 4 287 303 561 443
600 4 286 263 561 441
700 4 275 210 561 436
800 4 275 173 561 434
900 4 271 141 561 426
1000 4 270 107 561 422
1100 4 270 91 561 420
1200 4 268 80 561 411
1300 4 263 69 561 405
1400 4 256 53 561 394
1500 4 251 44 561 383
1600 4 248 36 561 374
1700 4 242 28 561 361
1800 4 232 24 561 350
1900 4 223 19 561 336
2000 4 220 12 561 325
2100 4 214 10 561 316
2200 4 208 8 561 305
2300 4 200 8 561 291
2400 4 194 6 561 282
2500 4 187 3 561 272
2600 4 182 3 561 265
2700 4 179 3 561 259
2800 4 174 3 561 251
2900 4 170 3 561 241
3000 4 167 3 561 236
3100 4 156 1 561 223
3200 4 148 1 561 213
3300 4 139 0 561 202
3400 4 134 0 561 193
3500 4 131 0 561 188
3600 4 125 0 561 182
3700 4 117 0 561 169
3800 4 107 0 561 156
3900 4 103 0 561 147
4000 4 100 0 561 144
500 5 291 370 561 456
600 5 290 315 561 454
700 5 279 261 561 448
800 5 279 217 561 446
900 5 275 181 561 436
1000 5 274 138 561 432
1100 5 274 115 561 430
1200 5 272 100 561 421
1300 5 267 85 561 415
1400 5 259 66 561 403
1500 5 254 57 561 392
1600 5 251 46 561 383
1700 5 245 35 561 370
1800 5 235 30 561 359
1900 5 226 25 561 344
2000 5 222 15 561 332
2100 5 216 13 561 322
2200 5 210 11 561 309
2300 5 202 11 561 295
2400 5 196 9 561 286
2500 5 189 6 561 276
2600 5 184 5 561 269
2700 5 181 4 561 263
2800 5 176 4 561 255
2900 5 172 4 561 245
3000 5 169 3 561 240
3100 5 158 1 561 227
3200 5 150 1 561 217
3300 5 141 0 561 206
3400 5 136 0 561 197
3500 5 133 0 561 192
3600 5 127 0 561 186
3700 5 119 0 561 172
3800 5 109 0 561 159
3900 5 105 0 561 150
4000 5 102 0 561 147
500 6 297 438 561 465
600 6 296 374 561 463
700 6 285 316 561 457
800 6 285 258 561 455
900 6 281 219 561 445
1000 6 280 165 561 441
1100 6 280 136 561 439
1200 6 278 115 561 430
1300 6 273 94 561 424
1400 6 265 71 561 412
1500 6 260 62 561 401
1600 6 257 50 561 392
1700 6 251 38 561 379
1800 6 241 32 561 368
1900 6 232 26 561 353
2000 6 228 16 561 341
2100 6 222 13 561 331
2200 6 216 11 561 318
2300 6 208 11 561 304
2400 6 202 9 561 295
2500 6 195 6 561 285
2600 6 190 5 561 278
2700 6 187 4 561 272
2800 6 181 4 561 263
2900 6 177 4 561 252
3000 6 174 3 561 247
3100 6 163 1 561 233
3200 6 155 1 561 223
3300 6 146 0 561 212
3400 6 141 0 561 203
3500 6 138 0 561 198
3600 6 132 0 561 192
3700 6 124 0 561 178
3800 6 113 0 561 164
3900 6 109 0 561 155
4000 6 106 0 561 152
500 7 300 505 561 473
600 7 299 430 561 471
700 7 287 368 561 465
800 7 287 305 561 463
900 7 283 262 561 453
1000 7 282 198 561 448
1100 7 282 164 561 446
1200 7 280 140 561 437
1300 7 275 113 561 431
1400 7 267 86 561 419
1500 7 262 74 561 408
1600 7 259 61 561 397
1700 7 253 49 561 384
1800 7 243 41 561 373
1900 7 234 32 561 358
2000 7 231 19 561 346
2100 7 225 14 561 336
2200 7 219 12 561 323
2300 7 211 12 561 309
2400 7 204 9 561 299
2500 7 197 6 561 289
2600 7 192 5 561 282
2700 7 189 4 561 276
2800 7 183 4 561 267
2900 7 179 4 561 255
3000 7 176 3 561 250
3100 7 165 1 561 235
3200 7 157 1 561 225
3300 7 148 0 561 214
3400 7 143 0 561 205
3500 7 140 0 561 200
3600 7 133 0 561 193
3700 7 125 0 561 179
3800 7 114 0 561 165
3900 7 110 0 561 156
4000 7 107 0 561 153
500 8 301 584 561 479
600 8 300 504 561 477
700 8 289 430 561 471
800 8 289 351 561 469
900 8 285 301 561 458
1000 8 284 229 561 453
1100 8 284 190 561 451
1200 8 282 161 561 442
1300 8 277 127 561 435
1400 8 269 95 561 423
1500 8 264 81 561 412
1600 8 261 67 561 399
1700 8 255 54 561 386
1800 8 244 45 561 374
1900 8 235 35 561 359
2000 8 232 21 561 347
2100 8 226 16 561 337
2200 8 220 14 561 324
2300 8 212 13 561 310
2400 8 205 10 561 300
2500 8 197 7 561 290
2600 8 193 5 561 283
2700 8 190 4 561 277
2800 8 184 4 561 268
2900 8 180 4 561 256
3000 8 177 3 561 251
3100 8 166 1 561 236
3200 8 158 1 561 226
3300 8 149 0 561 215
3400 8 144 0 561 206
3500 8 141 0 561 201
3600 8 134 0 561 194
3700 8 126 0 561 180
3800 8 115 0 561 166
3900 8 111 0 561 157
4000 8 108 0 561 154
500 9 301 658 561 480
600 9 300 571 561 478
700 9 289 489 561 472
800 9 289 396 561 470
900 9 285 341 561 459
1000 9 284 262 561 454
1100 9 284 216 561 452
1200 9 282 180 561 443
1300 9 277 138 561 436
1400 9 269 104 561 424
1500 9 264 90 561 413
1600 9 261 73 561 400
1700 9 255 59 561 387
1800 9 244 48 561 375
1900 9 235 38 561 360
2000 9 232 24 561 348
2100 9 226 19 561 338
2200 9 220 17 561 325
2300 9 212 15 561 311
2400 9 205 12 561 301
2500 9 197 9 561 291
2600 9 193 7 561 284
2700 9 190 5 561 278
2800 9 184 5 561 269
2900 9 180 5 561 257
3000 9 177 4 561 252
3100 9 166 2 561 237
3200 9 158 2 561 227
3300 9 149 1 561 216
3400 9 144 1 561 207
3500 9 141 1 561 202
3600 9 134 1 561 195
3700 9 126 1 561 180
3800 9 115 1 561 166
3900 9 111 1 561 157
4000 9 108 1 561 154
500 10 302 744 561 483
600 10 301 645 561 481
700 10 290 550 561 475
800 10 290 449 561 473
900 10 286 388 561 462
1000 10 285 300 561 457
1100 10 285 251 561 455
1200 10 283 206 561 445
1300 10 278 158 561 438
1400 10 270 119 561 426
1500 10 265 100 561 415
1600 10 262 81 561 402
1700 10 256 65 561 389
1800 10 245 54 561 377
1900 10 236 41 561 362
2000 10 233 27 561 350
2100 10 227 21 561 340
2200 10 220 19 561 326
2300 10 212 17 561 311
2400 10 205 14 561 301
2500 10 197 11 561 291
2600 10 193 9 561 284
2700 10 190 6 561 278
2800 10 184 5 561 269
2900 10 180 5 561 257
3000 10 177 4 561 252
3100 10 166 2 561 237
3200 10 158 2 561 227
3300 10 149 1 561 216
3400 10 144 1 561 207
3500 10 141 1 561 202
3600 10 134 1 561 195
3700 10 126 1 561 180
3800 10 115 1 561 166
3900 10 111 1 561 157
4000 10 108 1 561 154
500 11 302 813 561 485
600 11 301 706 561 483
700 11 290 605 561 477
800 11 290 495 561 475
900 11 286 428 561 464
1000 11 285 334 561 458
1100 11 285 278 561 456
1200 11 283 229 561 446
1300 11 278 173 561 439
1400 11 270 131 561 427
1500 11 265 109 561 416
1600 11 262 88 561 403
1700 11 256 72 561 390
1800 11 245 59 561 377
1900 11 236 45 561 362
2000 11 233 31 561 350
2100 11 227 25 561 340
2200 11 220 23 561 326
2300 11 212 20 561 311
2400 11 205 16 561 301
2500 11 197 13 561 291
2600 11 193 10 561 284
2700 11 190 7 561 278
2800 11 184 5 561 269
2900 11 180 5 561 257
3000 11 177 4 561 252
3100 11 166 2 561 237
3200 11 158 2 561 227
3300 11 149 1 561 216
3400 11 144 1 561 207
3500 11 141 1 561 202
3600 11 134 1 561 195
3700 11 126 1 561 180
3800 11 115 1 561 166
3900 11 111 1 561 157
4000 11 108 1 561 154
500 12 302 894 561 485
600 12 301 773 561 483
700 12 290 661 561 477
800 12 290 537 561 475
900 12 286 464 561 464
1000 12 285 367 561 458
1100 12 285 305 561 456
1200 12 283 249 561 446
1300 12 278 189 561 439
1400 12 270 144 561 427
1500 12 265 119 561 416
1600 12 262 97 561 403
1700 12 256 77 561 390
1800 12 245 63 561 377
1900 12 236 48 561 362
2000 12 233 34 561 350
2100 12 227 28 561 340
2200 12 220 25 561 326
2300 12 212 22 561 311
2400 12 205 17 561 301
2500 12 197 14 561 291
2600 12 193 11 561 284
2700 12 190 8 561 278
2800 12 184 5 561 269
2900 12 180 5 561 257
3000 12 177 4 561 252
3100 12 166 2 561 237
3200 12 158 2 561 227
3300 12 149 1 561 216
3400 12 144 1 561 207
3500 12 141 1 561 202
3600 12 134 1 561 195
3700 12 126 1 561 180
3800 12 115 1 561 166
3900 12 111 1 561 157
4000 12 108 1 561 154
