500 1 149 70 568 228
600 1 148 63 568 226
700 1 146 54 568 223
800 1 146 42 568 222
900 1 145 35 568 219
1000 1 145 26 568 218
1100 1 142 20 568 212
1200 1 140 12 568 209
1300 1 139 8 568 202
1400 1 134 5 568 195
1500 1 133 4 568 191
1600 1 129 2 568 183
1700 1 125 1 568 177
1800 1 116 1 568 169
1900 1 113 1 568 163
2000 1 105 0 568 152
2100 1 103 0 568 148
2200 1 100 0 568 144
2300 1 98 0 568 139
2400 1 95 0 568 135
2500 1 91 0 568 129
2600 1 91 0 568 127
2700 1 88 0 568 122
2800 1 84 0 568 115
2900 1 80 0 568 109
3000 1 78 0 568 105
3100 1 76 0 568 100
3200 1 72 0 568 96
3300 1 67 0 568 91
3400 1 65 0 568 87
3500 1 63 0 568 84
3600 1 62 0 568 82
3700 1 56 0 568 72
3800 1 53 0 568 69
3900 1 51 0 568 66
4000 1 49 0 568 64
500 2 218 128 568 334
600 2 216 112 568 331
700 2 213 94 568 327
800 2 213 75 568 326
900 2 211 64 568 321
1000 2 211 49 568 319
1100 2 208 41 568 312
1200 2 205 25 568 308
1300 2 204 19 568 301
1400 2 198 15 568 291
1500 2 196 9 568 285
1600 2 191 6 568 274
1700 2 185 5 568 265
1800 2 174 2 568 253
1900 2 169 2 568 242
2000 2 159 2 568 229
2100 2 156 1 568 224
2200 2 151 2 568 215
2300 2 144 1 568 204
2400 2 140 1 568 198
2500 2 136 1 568 192
2600 2 135 1 568 188
2700 2 132 1 568 183
2800 2 124 1 568 171
2900 2 120 1 568 165
3000 2 117 0 568 159
3100 2 113 0 568 152
3200 2 107 0 568 145
3300 2 101 0 568 138
3400 2 98 0 568 132
3500 2 96 0 568 128
3600 2 93 0 568 122
3700 2 84 0 568 109
3800 2 81 0 568 106
3900 2 77 0 568 101
4000 2 74 0 568 97
500 3 246 200 568 375
600 3 244 177 568 370
700 3 243 149 568 366
800 3 243 121 568 365
900 3 239 103 568 360
1000 3 240 83 568 357
1100 3 235 66 568 350
1200 3 234 47 568 345
1300 3 231 37 568 336
1400 3 222 29 568 325
1500 3 219 20 568 318
1600 3 215 14 568 306
1700 3 209 11 568 296
1800 3 198 6 568 284
1900 3 193 6 568 273
2000 3 183 6 568 260
2100 3 178 3 568 253
2200 3 172 4 568 243
2300 3 163 3 568 230
2400 3 159 2 568 224
2500 3 155 1 568 218
2600 3 154 1 568 213
2700 3 151 1 568 207
2800 3 143 1 568 195
2900 3 139 1 568 189
3000 3 136 0 568 183
3100 3 132 0 568 176
3200 3 126 0 568 169
3300 3 120 0 568 162
3400 3 115 0 568 154
3500 3 113 0 568 150
3600 3 109 0 568 143
3700 3 100 0 568 130
3800 3 97 0 568 127
3900 3 92 0 568 121
4000 3 88 0 568 116
500 4 261 280 568 399
600 4 259 245 568 394
700 4 258 202 568 389
800 4 258 165 568 387
900 4 254 143 568 381
1000 4 255 116 568 378
1100 4 250 95 568 371
1200 4 249 66 568 366
1300 4 246 51 568 357
1400 4 237 41 568 345
1500 4 234 27 568 338
1600 4 230 20 568 326
1700 4 224 15 568 316
1800 4 213 9 568 303
1900 4 207 9 568 291
2000 4 196 9 568 277
2100 4 191 6 568 270
2200 4 185 7 568 260
2300 4 176 6 568 247
2400 4 171 4 568 240
2500 4 167 3 568 234
2600 4 166 2 568 229
2700 4 162 1 568 222
2800 4 154 2 568 210
2900 4 150 1 568 204
3000 4 147 0 568 198
3100 4 143 0 568 191
3200 4 135 0 568 182
3300 4 128 0 568 174
3400 4 123 0 568 166
3500 4 120 0 568 160
3600 4 116 0 568 153
3700 4 107 0 568 140
3800 4 103 0 568 136
3900 4 97 0 568 129
4000 4 93 0 568 124
500 5 266 351 568 416
600 5 264 307 568 411
700 5 263 256 568 405
800 5 263 209 568 403
900 5 259 179 568 397
1000 5 260 146 568 394
1100 5 255 119 568 387
1200 5 254 88 568 381
1300 5 251 66 568 372
1400 5 242 54 568 360
1500 5 239 39 568 353
1600 5 235 27 568 341
1700 5 228 20 568 330
1800 5 218 14 568 317
1900 5 211 12 568 303
2000 5 200 11 568 289
2100 5 194 8 568 281
2200 5 188 8 568 271
2300 5 179 7 568 258
2400 5 174 5 568 250
2500 5 170 4 568 244
2600 5 169 2 568 239
2700 5 165 1 568 232
2800 5 157 2 568 220
2900 5 153 1 568 212
3000 5 150 0 568 206
3100 5 146 0 568 199
3200 5 138 0 568 190
3300 5 131 0 568 182
3400 5 125 0 568 173
3500 5 122 0 568 167
3600 5 118 0 568 160
3700 5 109 0 568 147
3800 5 105 0 568 143
3900 5 99 0 568 136
4000 5 95 0 568 131
500 6 270 422 568 425
600 6 268 370 568 420
700 6 267 309 568 414
800 6 267 252 568 412
900 6 263 214 568 405
1000 6 264 168 568 402
1100 6 259 137 568 395
1200 6 258 103 568 389
1300 6 255 79 568 380
1400 6 246 64 568 368
1500 6 243 45 568 361
1600 6 239 31 568 349
1700 6 232 23 568 338
1800 6 222 16 568 325
1900 6 215 14 568 311
2000 6 203 12 568 295
2100 6 197 9 568 287
2200 6 191 9 568 277
2300 6 182 8 568 264
2400 6 177 6 568 256
2500 6 173 4 568 249
2600 6 172 2 568 244
2700 6 168 1 568 236
2800 6 160 2 568 224
2900 6 156 1 568 216
3000 6 153 0 568 210
3100 6 149 0 568 203
3200 6 141 0 568 194
3300 6 134 0 568 186
3400 6 128 0 568 177
3500 6 125 0 568 171
3600 6 121 0 568 164
3700 6 112 0 568 151
3800 6 107 0 568 146
3900 6 101 0 568 139
4000 6 97 0 568 134
500 7 277 499 568 440
600 7 275 434 568 435
700 7 274 365 568 429
800 7 274 297 568 427
900 7 270 254 568 420
1000 7 271 197 568 416
1100 7 266 160 568 409
1200 7 265 123 568 403
1300 7 262 94 568 394
1400 7 253 76 568 382
1500 7 250 55 568 375
1600 7 246 38 568 363
1700 7 238 29 568 350
1800 7 229 18 568 337
1900 7 222 16 568 322
2000 7 209 13 568 305
2100 7 203 10 568 297
2200 7 197 10 568 287
2300 7 187 9 568 273
2400 7 182 7 568 264
2500 7 177 5 568 257
2600 7 176 3 568 252
2700 7 172 2 568 244
2800 7 164 3 568 231
2900 7 160 1 568 222
3000 7 157 0 568 215
3100 7 153 0 568 208
3200 7 145 0 568 199
3300 7 138 0 568 191
3400 7 132 0 568 182
3500 7 129 0 568 176
3600 7 125 0 568 169
3700 7 115 0 568 155
3800 7 110 0 568 150
3900 7 104 0 568 143
4000 7 100 0 568 138
500 8 282 566 568 449
600 8 280 495 568 444
700 8 279 417 568 438
800 8 278 342 568 435
900 8 274 292 568 428
1000 8 275 231 568 424
1100 8 270 184 568 417
1200 8 269 138 568 411
1300 8 266 102 568 402
1400 8 257 84 568 390
1500 8 254 60 568 383
1600 8 250 41 568 370
1700 8 241 32 568 356
1800 8 232 21 568 343
1900 8 225 18 568 328
2000 8 211 14 568 310
2100 8 205 11 568 302
2200 8 199 11 568 291
2300 8 189 10 568 277
2400 8 184 8 568 268
2500 8 179 6 568 261
2600 8 178 4 568 256
2700 8 174 3 568 248
2800 8 166 4 568 235
2900 8 162 2 568 226
3000 8 159 1 568 219
3100 8 155 1 568 212
3200 8 147 1 568 203
3300 8 140 1 568 195
3400 8 134 1 568 186
3500 8 131 1 568 180
3600 8 127 1 568 173
3700 8 117 1 568 159
3800 8 112 1 568 154
3900 8 105 1 568 146
4000 8 101 1 568 141
500 9 286 628 568 455
600 9 284 546 568 450
700 9 283 459 568 444
800 9 282 375 568 441
900 9 278 319 568 434
1000 9 279 255 568 430
1100 9 274 205 568 423
1200 9 273 154 568 417
1300 9 270 116 568 408
1400 9 261 92 568 396
1500 9 258 67 568 388
1600 9 254 46 568 375
1700 9 245 37 568 361
1800 9 236 24 568 348
1900 9 229 21 568 333
2000 9 215 15 568 315
2100 9 209 12 568 307
2200 9 203 12 568 296
2300 9 193 11 568 282
2400 9 188 9 568 273
2500 9 183 6 568 266
2600 9 182 4 568 261
2700 9 178 3 568 253
2800 9 170 4 568 240
2900 9 166 2 568 231
3000 9 163 1 568 224
3100 9 158 1 568 216
3200 9 149 1 568 206
3300 9 142 1 568 198
3400 9 136 1 568 189
3500 9 133 1 568 183
3600 9 129 1 568 176
3700 9 119 1 568 162
3800 9 114 1 568 157
3900 9 107 1 568 149
4000 9 103 1 568 143
500 10 288 684 568 460
600 10 286 591 568 455
700 10 285 499 568 449
800 10 284 404 568 446
900 10 280 341 568 439
1000 10 281 273 568 435
1100 10 276 221 568 428
1200 10 275 166 568 422
1300 10 272 124 568 413
1400 10 262 97 568 400
1500 10 259 71 568 392
1600 10 255 48 568 379
1700 10 246 38 568 364
1800 10 237 25 568 350
1900 10 230 22 568 335
2000 10 216 16 568 317
2100 10 209 13 568 308
2200 10 203 13 568 297
2300 10 193 12 568 283
2400 10 188 10 568 274
2500 10 183 6 568 267
2600 10 182 4 568 262
2700 10 178 3 568 254
2800 10 170 4 568 241
2900 10 166 2 568 232
3000 10 163 1 568 225
3100 10 158 1 568 217
3200 10 149 1 568 207
3300 10 142 1 568 199
3400 10 136 1 568 189
3500 10 133 1 568 183
3600 10 129 1 568 176
3700 10 119 1 568 162
3800 10 114 1 568 157
3900 10 107 1 568 149
4000 10 103 1 568 143
500 11 291 743 568 465
600 11 289 647 568 460
700 11 288 547 568 454
800 11 287 447 568 451
900 11 283 375 568 444
1000 11 284 301 568 440
1100 11 279 244 568 433
1200 11 278 184 568 427
1300 11 274 140 568 417
1400 11 264 109 568 404
1500 11 261 82 568 396
1600 11 257 54 568 383
1700 11 248 42 568 368
1800 11 239 28 568 354
1900 11 232 23 568 339
2000 11 218 16 568 321
2100 11 211 13 568 312
2200 11 205 13 568 301
2300 11 195 12 568 287
2400 11 190 10 568 278
2500 11 185 6 568 271
2600 11 184 4 568 266
2700 11 180 3 568 258
2800 11 171 4 568 244
2900 11 167 2 568 235
3000 11 164 1 568 228
3100 11 159 1 568 220
3200 11 150 1 568 210
3300 11 143 1 568 202
3400 11 136 1 568 191
3500 11 133 1 568 185
3600 11 129 1 568 178
3700 11 119 1 568 164
3800 11 114 1 568 159
3900 11 107 1 568 150
4000 11 103 1 568 144
500 12 293 828 568 469
600 12 291 719 568 464
700 12 290 610 568 458
800 12 289 499 568 455
900 12 285 419 568 448
1000 12 286 337 568 444
1100 12 281 269 568 436
1200 12 280 204 568 430
1300 12 276 156 568 420
1400 12 266 121 568 407
1500 12 263 90 568 399
1600 12 259 61 568 386
1700 12 250 47 568 371
1800 12 241 32 568 357
1900 12 234 25 568 342
2000 12 220 18 568 324
2100 12 213 15 568 314
2200 12 207 14 568 303
2300 12 197 12 568 289
2400 12 192 10 568 280
2500 12 187 6 568 273
2600 12 186 4 568 268
2700 12 182 3 568 260
2800 12 173 4 568 246
2900 12 169 2 568 237
3000 12 166 1 568 230
3100 12 160 1 568 221
3200 12 151 1 568 211
3300 12 144 1 568 203
3400 12 137 1 568 192
3500 12 134 1 568 186
3600 12 130 1 568 179
3700 12 120 1 568 165
3800 12 115 1 568 160
3900 12 108 1 568 151
4000 12 104 1 568 145