100 1 137 1857 1125 139
110 1 137 1848 1125 139
120 1 137 1819 1125 139
130 1 137 1796 1125 139
140 1 137 1777 1125 139
150 1 136 1724 1125 138
160 1 135 1661 1125 137
170 1 134 1607 1125 136
180 1 133 1524 1125 135
190 1 132 1525 1125 134
200 1 130 1474 1125 132
210 1 128 1438 1125 130
220 1 127 1281 1125 129
230 1 124 1217 1125 126
240 1 122 1114 1125 124
250 1 121 1058 1125 123
260 1 120 976 1125 122
270 1 118 893 1125 120
280 1 118 743 1125 120
290 1 116 780 1125 118
300 1 116 746 1125 118
310 1 114 692 1125 116
320 1 110 660 1125 112
330 1 105 420 1125 110
340 1 106 452 1125 110
350 1 104 479 1125 108
360 1 103 591 1125 105
370 1 102 581 1125 104
380 1 100 553 1125 102
390 1 98 502 1125 100
400 1 93 298 1125 99
410 1 95 427 1125 97
420 1 91 287 1125 96
430 1 88 266 1125 94
440 1 86 250 1125 93
450 1 85 238 1125 92
460 1 79 225 1125 90
470 1 78 218 1125 89
480 1 78 213 1125 85
490 1 77 197 1125 84
500 1 79 345 1125 81
510 1 78 334 1125 80
530 1 72 322 1125 74
540 1 71 301 1125 73
550 1 70 283 1125 72
560 1 69 275 1125 71
570 1 65 258 1125 67
580 1 63 247 1125 65
590 1 61 237 1125 63
600 1 59 235 1125 61
100 2 203 3710 1125 205
110 2 203 3694 1125 205
120 2 203 3647 1125 205
130 2 203 3584 1125 205
140 2 203 3546 1125 205
150 2 202 3448 1125 204
160 2 199 3307 1125 201
170 2 197 3207 1125 199
180 2 195 3030 1125 197
190 2 192 3070 1125 194
200 2 190 2966 1125 192
210 2 188 2881 1125 190
220 2 186 2542 1125 188
230 2 182 2408 1125 184
240 2 180 2221 1125 182
250 2 177 2125 1125 179
260 2 175 1958 1125 177
270 2 173 1787 1125 175
280 2 171 1503 1125 173
290 2 169 1565 1125 171
300 2 169 1497 1125 171
310 2 165 1395 1125 167
320 2 160 1311 1125 162
330 2 152 849 1125 158
340 2 154 924 1125 158
350 2 151 955 1125 155
360 2 150 1167 1125 152
370 2 148 1133 1125 150
380 2 145 1084 1125 147
390 2 142 984 1125 144
400 2 135 598 1125 142
410 2 136 817 1125 138
420 2 130 559 1125 136
430 2 124 519 1125 132
440 2 121 476 1125 131
450 2 120 454 1125 130
460 2 113 423 1125 127
470 2 110 408 1125 124
480 2 107 396 1125 117
490 2 106 368 1125 116
500 2 110 629 1125 112
510 2 107 595 1125 109
520 2 102 615 1125 104
530 2 98 588 1125 100
540 2 97 541 1125 99
550 2 96 520 1125 98
560 2 95 512 1125 97
570 2 91 478 1125 93
580 2 88 465 1125 90
590 2 85 451 1125 87
600 2 83 446 1125 85
100 3 238 5434 1125 240
110 3 238 5410 1125 240
120 3 238 5343 1125 240
130 3 238 5237 1125 240
140 3 237 5178 1125 239
150 3 236 5039 1125 238
160 3 233 4831 1125 235
170 3 230 4682 1125 232
180 3 227 4413 1125 230
190 3 225 4462 1125 227
200 3 222 4315 1125 224
210 3 219 4183 1125 221
220 3 216 3709 1125 219
230 3 211 3496 1125 214
240 3 208 3236 1125 211
250 3 204 3100 1125 207
260 3 200 2849 1125 203
270 3 198 2602 1125 201
280 3 195 2162 1125 198
290 3 193 2268 1125 196
300 3 192 2189 1125 195
310 3 187 2034 1125 190
320 3 181 1901 1125 184
330 3 170 1215 1125 179
340 3 172 1324 1125 178
350 3 170 1368 1125 175
360 3 168 1672 1125 171
370 3 165 1622 1125 168
380 3 161 1552 1125 164
390 3 158 1411 1125 161
400 3 150 850 1125 159
410 3 150 1179 1125 153
420 3 143 801 1125 151
430 3 136 747 1125 146
440 3 133 676 1125 145
450 3 132 646 1125 144
460 3 125 598 1125 141
470 3 122 576 1125 137
480 3 118 558 1125 129
490 3 117 516 1125 128
500 3 120 888 1125 122
510 3 116 831 1125 118
520 3 109 853 1125 111
530 3 104 815 1125 106
540 3 103 749 1125 105
550 3 102 728 1125 104
560 3 101 713 1125 103
570 3 97 667 1125 99
580 3 94 647 1125 96
590 3 91 631 1125 93
600 3 89 625 1125 91
100 4 264 7179 1125 266
110 4 264 7142 1125 266
120 4 264 7047 1125 266
130 4 263 6898 1125 265
140 4 262 6822 1125 264
150 4 261 6642 1125 263
160 4 258 6367 1125 260
170 4 253 6163 1125 255
180 4 250 5819 1125 253
190 4 246 5880 1125 248
200 4 243 5678 1125 245
210 4 240 5522 1125 242
220 4 235 4911 1125 238
230 4 229 4627 1125 232
240 4 224 4282 1125 227
250 4 219 4091 1125 222
260 4 214 3765 1125 217
270 4 212 3431 1125 215
280 4 207 2853 1125 210
290 4 204 2990 1125 207
300 4 203 2894 1125 206
310 4 198 2688 1125 201
320 4 192 2513 1125 195
330 4 180 1620 1125 190
340 4 182 1751 1125 189
350 4 181 1811 1125 186
360 4 179 2201 1125 182
370 4 175 2140 1125 178
380 4 170 2046 1125 173
390 4 167 1867 1125 170
400 4 158 1126 1125 168
410 4 157 1538 1125 160
420 4 149 1053 1125 158
430 4 142 989 1125 153
440 4 139 893 1125 152
450 4 138 849 1125 151
460 4 131 782 1125 148
470 4 127 749 1125 143
480 4 123 729 1125 135
490 4 122 671 1125 134
500 4 125 1162 1125 127
510 4 121 1089 1125 123
520 4 114 1110 1125 116
530 4 109 1057 1125 111
540 4 108 977 1125 110
550 4 107 949 1125 109
560 4 106 928 1125 108
570 4 102 871 1125 104
580 4 99 839 1125 101
590 4 96 817 1125 98
600 4 94 807 1125 96
100 5 283 8893 1125 285
110 5 283 8840 1125 285
120 5 283 8720 1125 285
130 5 282 8533 1125 284
140 5 281 8440 1125 283
150 5 280 8203 1125 282
160 5 276 7846 1125 278
170 5 270 7604 1125 272
180 5 267 7177 1125 270
190 5 262 7241 1125 264
200 5 259 6982 1125 261
210 5 256 6806 1125 258
220 5 251 6044 1125 254
230 5 245 5707 1125 248
240 5 239 5279 1125 242
250 5 232 5039 1125 235
260 5 226 4649 1125 229
270 5 224 4230 1125 227
280 5 219 3505 1125 222
290 5 215 3676 1125 218
300 5 213 3562 1125 216
310 5 207 3309 1125 210
320 5 201 3097 1125 204
330 5 188 1990 1125 199
340 5 190 2163 1125 197
350 5 188 2246 1125 193
360 5 186 2724 1125 189
370 5 182 2645 1125 185
380 5 177 2529 1125 180
390 5 174 2308 1125 177
400 5 164 1393 1125 174
410 5 163 1890 1125 166
420 5 155 1302 1125 164
430 5 148 1219 1125 159
440 5 145 1112 1125 158
450 5 144 1058 1125 157
460 5 137 976 1125 154
470 5 132 935 1125 148
480 5 128 911 1125 140
490 5 127 837 1125 139
500 5 129 1419 1125 131
510 5 125 1331 1125 127
520 5 118 1351 1125 120
530 5 112 1283 1125 114
540 5 111 1190 1125 113
550 5 110 1157 1125 112
560 5 109 1125 1125 111
570 5 104 1061 1125 106
580 5 101 1018 1125 103
590 5 98 990 1125 100
600 5 96 974 1125 98
100 6 310 10613 1125 313
110 6 310 10539 1125 313
120 6 309 10390 1125 312
130 6 308 10168 1125 311
140 6 307 10042 1125 310
150 6 305 9762 1125 308
160 6 301 9326 1125 304
180 6 288 8540 1125 292
190 6 281 8606 1125 284
200 6 278 8290 1125 281
210 6 275 8074 1125 278
220 6 270 7175 1125 274
230 6 263 6794 1125 267
240 6 257 6294 1125 261
250 6 248 6014 1125 252
260 6 242 5529 1125 246
270 6 240 5029 1125 244
280 6 233 4180 1125 238
290 6 230 4375 1125 234
300 6 227 4246 1125 231
310 6 221 3947 1125 225
320 6 214 3694 1125 218
330 6 198 2380 1125 213
340 6 202 2593 1125 211
350 6 200 2692 1125 207
360 6 198 3243 1125 202
370 6 193 3148 1125 197
380 6 187 3007 1125 191
390 6 183 2738 1125 187
400 6 168 1651 1125 182
410 6 169 2249 1125 173
420 6 160 1550 1125 171
430 6 152 1447 1125 166
440 6 149 1317 1125 164
450 6 148 1254 1125 163
460 6 140 1164 1125 160
470 6 135 1111 1125 154
480 6 132 1083 1125 146
490 6 131 995 1125 145
500 6 134 1681 1125 137
510 6 130 1573 1125 133
520 6 122 1596 1125 125
530 6 116 1512 1125 119
540 6 115 1407 1125 118
550 6 114 1369 1125 117
560 6 113 1330 1125 116
570 6 108 1250 1125 111
580 6 105 1199 1125 108
590 6 102 1167 1125 105
600 6 100 1145 1125 103
100 7 329 12271 1125 333
110 7 329 12178 1125 333
120 7 328 12007 1125 332
130 7 326 11750 1125 330
140 7 325 11610 1125 329
150 7 321 11278 1125 325
160 7 317 10772 1125 321
170 7 306 10451 1125 310
180 7 302 9866 1125 307
190 7 295 9932 1125 299
200 7 291 9569 1125 295
210 7 287 9314 1125 291
220 7 282 8274 1125 287
230 7 273 7823 1125 278
240 7 266 7258 1125 271
250 7 257 6939 1125 262
260 7 251 6370 1125 255
270 7 249 5786 1125 253
280 7 242 4806 1125 247
290 7 238 5041 1125 242
300 7 235 4898 1125 239
310 7 229 4548 1125 233
320 7 221 4245 1125 225
330 7 205 2747 1125 220
340 7 206 2994 1125 215
350 7 204 3107 1125 211
360 7 202 3740 1125 206
370 7 197 3627 1125 201
380 7 190 3456 1125 194
390 7 186 3148 1125 190
400 7 170 1910 1125 184
410 7 170 2594 1125 174
420 7 161 1787 1125 172
430 7 153 1671 1125 167
440 7 150 1524 1125 165
450 7 149 1448 1125 164
460 7 141 1346 1125 161
470 7 136 1280 1125 155
480 7 133 1248 1125 147
490 7 132 1151 1125 146
500 7 135 1933 1125 138
510 7 131 1802 1125 134
520 7 123 1830 1125 126
530 7 117 1732 1125 120
540 7 116 1610 1125 119
550 7 115 1564 1125 118
560 7 113 1516 1125 116
570 7 108 1425 1125 111
580 7 105 1366 1125 108
590 7 102 1330 1125 105
600 7 100 1300 1125 103
100 8 342 13917 1125 346
110 8 342 13809 1125 346
120 8 341 13619 1125 345
130 8 339 13332 1125 343
140 8 338 13166 1125 342
150 8 334 12789 1125 338
160 8 329 12221 1125 333
170 8 318 11862 1125 322
180 8 314 11196 1125 319
190 8 306 11274 1125 310
200 8 302 10853 1125 306
210 8 297 10569 1125 301
220 8 291 9371 1125 296
230 8 281 8858 1125 286
240 8 274 8222 1125 279
250 8 265 7862 1125 270
260 8 259 7213 1125 263
270 8 255 6562 1125 259
280 8 248 5452 1125 253
290 8 243 5721 1125 247
300 8 240 5552 1125 244
310 8 234 5155 1125 238
320 8 224 4818 1125 228
330 8 208 3103 1125 223
340 8 209 3382 1125 218
350 8 207 3501 1125 214
360 8 205 4218 1125 209
370 8 200 4081 1125 204
380 8 193 3884 1125 197
390 8 189 3537 1125 193
400 8 173 2141 1125 187
410 8 173 2924 1125 177
420 8 163 2006 1125 174
430 8 155 1875 1125 169
440 8 151 1715 1125 166
450 8 150 1636 1125 165
460 8 142 1518 1125 162
470 8 137 1448 1125 156
480 8 134 1410 1125 148
490 8 133 1297 1125 147
500 8 136 2165 1125 139
510 8 132 2011 1125 135
520 8 124 2043 1125 127
530 8 118 1933 1125 121
540 8 117 1787 1125 120
550 8 116 1738 1125 119
560 8 114 1683 1125 117
570 8 109 1575 1125 112
580 8 105 1514 1125 108
590 8 102 1468 1125 105
600 8 100 1438 1125 103
