120 1 224 1603 1913 227
140 1 222 1497 1913 225
160 1 218 1359 1913 221
180 1 211 1212 1913 214
200 1 201 1082 1913 204
220 1 192 946 1913 195
240 1 185 827 1913 188
260 1 176 726 1913 179
280 1 170 635 1913 173
300 1 155 547 1913 158
320 1 144 496 1913 147
340 1 136 436 1913 138
360 1 130 403 1913 132
380 1 124 365 1913 126
400 1 115 332 1913 117
420 1 109 300 1913 111
440 1 103 273 1913 105
460 1 96 265 1913 99
480 1 88 250 1913 91
500 1 83 224 1913 86
520 1 79 202 1913 81
540 1 73 186 1913 75
560 1 70 171 1913 72
580 1 66 151 1913 68
600 1 59 144 1913 62
120 2 374 3214 1913 380
140 2 363 2980 1913 369
160 2 351 2693 1913 357
180 2 339 2426 1913 345
200 2 320 2179 1913 326
220 2 303 1924 1913 309
240 2 290 1684 1913 296
260 2 273 1488 1913 279
280 2 263 1329 1913 269
300 2 245 1147 1913 251
320 2 225 1015 1913 231
340 2 216 898 1913 220
360 2 205 817 1913 209
380 2 196 737 1913 200
400 2 183 672 1913 187
420 2 172 606 1913 176
440 2 162 554 1913 166
460 2 152 529 1913 157
480 2 140 486 1913 145
500 2 135 430 1913 140
520 2 127 391 1913 131
540 2 118 354 1913 122
560 2 115 317 1913 119
580 2 105 284 1913 109
600 2 97 264 1913 102
120 3 442 4732 1913 448
140 3 429 4408 1913 435
160 3 413 4005 1913 419
180 3 399 3607 1913 405
200 3 378 3241 1913 384
220 3 359 2843 1913 365
240 3 345 2491 1913 351
260 3 321 2216 1913 327
280 3 308 1989 1913 314
300 3 290 1710 1913 296
320 3 267 1512 1913 273
340 3 257 1334 1913 261
360 3 244 1222 1913 248
380 3 233 1102 1913 237
400 3 217 1003 1913 221
420 3 204 895 1913 208
440 3 192 813 1913 196
460 3 180 778 1913 185
480 3 166 710 1913 171
500 3 159 633 1913 164
520 3 149 564 1913 153
540 3 138 508 1913 142
560 3 133 454 1913 137
580 3 122 416 1913 126
600 3 113 391 1913 118
120 4 486 6248 1913 493
140 4 473 5804 1913 480
160 4 456 5274 1913 463
180 4 438 4745 1913 445
200 4 416 4267 1913 423
220 4 397 3761 1913 404
240 4 381 3283 1913 388
260 4 354 2919 1913 361
280 4 340 2619 1913 347
300 4 319 2261 1913 326
320 4 294 1995 1913 301
340 4 282 1769 1913 287
360 4 267 1607 1913 272
380 4 254 1447 1913 259
400 4 238 1322 1913 243
420 4 223 1181 1913 227
440 4 209 1066 1913 213
460 4 196 1018 1913 201
480 4 181 923 1913 186
500 4 173 826 1913 178
520 4 161 724 1913 165
540 4 148 649 1913 152
560 4 143 577 1913 147
580 4 132 531 1913 136
600 4 121 502 1913 126
120 5 515 7738 1913 523
140 5 498 7181 1913 506
160 5 480 6520 1913 488
180 5 461 5849 1913 469
200 5 436 5250 1913 444
220 5 414 4625 1913 422
240 5 398 4046 1913 406
260 5 369 3605 1913 377
280 5 354 3233 1913 362
300 5 333 2796 1913 341
320 5 308 2455 1913 316
340 5 296 2171 1913 302
360 5 281 1966 1913 287
380 5 268 1779 1913 274
400 5 251 1625 1913 257
420 5 235 1455 1913 240
440 5 220 1308 1913 225
460 5 207 1254 1913 213
480 5 192 1131 1913 197
500 5 182 1012 1913 187
520 5 169 878 1913 173
540 5 156 792 1913 160
560 5 151 710 1913 155
580 5 139 652 1913 143
600 5 127 615 1913 132
120 6 544 9216 1913 552
140 6 525 8556 1913 533
160 6 504 7757 1913 512
180 6 482 6962 1913 490
200 6 457 6250 1913 465
220 6 433 5526 1913 441
240 6 414 4823 1913 422
260 6 383 4289 1913 391
280 6 366 3843 1913 374
300 6 344 3336 1913 352
320 6 319 2935 1913 327
340 6 307 2590 1913 313
360 6 292 2332 1913 298
380 6 276 2101 1913 282
400 6 258 1918 1913 264
420 6 241 1715 1913 246
440 6 226 1547 1913 231
460 6 213 1484 1913 219
480 6 197 1339 1913 202
500 6 187 1199 1913 192
520 6 174 1035 1913 178
540 6 159 932 1913 163
560 6 154 836 1913 158
580 6 142 764 1913 146
600 6 130 723 1913 135
120 7 570 10693 1913 579
140 7 550 9937 1913 559
160 7 524 9008 1913 533
180 7 500 8079 1913 509
200 7 474 7248 1913 483
220 7 448 6429 1913 457
240 7 428 5623 1913 437
260 7 395 5004 1913 404
280 7 378 4472 1913 387
300 7 354 3879 1913 363
320 7 329 3421 1913 338
340 7 315 3020 1913 322
360 7 299 2716 1913 306
380 7 282 2444 1913 289
400 7 263 2225 1913 270
420 7 246 1982 1913 252
440 7 231 1783 1913 237
460 7 218 1715 1913 225
480 7 201 1547 1913 207
500 7 190 1384 1913 196
520 7 177 1192 1913 182
540 7 161 1068 1913 166
560 7 156 962 1913 161
580 7 144 881 1913 149
600 7 132 834 1913 138
120 8 592 12162 1913 602
140 8 572 11307 1913 582
160 8 545 10230 1913 555
180 8 521 9191 1913 531
200 8 494 8240 1913 504
220 8 468 7302 1913 478
240 8 448 6404 1913 458
260 8 411 5696 1913 421
280 8 392 5077 1913 402
300 8 368 4413 1913 378
320 8 340 3888 1913 350
340 8 325 3433 1913 333
360 8 308 3100 1913 316
380 8 290 2788 1913 298
400 8 271 2534 1913 279
420 8 254 2258 1913 261
440 8 238 2030 1913 245
460 8 224 1954 1913 232
480 8 207 1762 1913 214
500 8 195 1572 1913 202
520 8 182 1354 1913 188
540 8 166 1215 1913 172
560 8 160 1094 1913 166
580 8 147 1001 1913 153
600 8 134 944 1913 141
