140 1 185 1631 1918 192
160 1 180 1513 1918 187
180 1 175 1371 1918 182
200 1 166 1234 1918 173
260 1 149 898 1918 155
320 1 136 640 1918 142
340 1 132 566 1918 138
360 1 126 503 1918 132
380 1 118 450 1918 124
440 1 103 332 1918 107
460 1 97 297 1918 101
540 1 80 213 1918 84
560 1 75 199 1918 79
580 1 71 180 1918 75
600 1 68 169 1918 72
120 2 316 3390 1918 326
180 2 290 2692 1918 300
200 2 276 2438 1918 286
220 2 268 2175 1918 278
240 2 258 1936 1918 267
260 2 243 1741 1918 252
280 2 231 1541 1918 240
300 2 222 1375 1918 231
360 2 202 963 1918 211
380 2 192 861 1918 201
400 2 182 784 1918 191
420 2 174 696 1918 183
460 2 158 555 1918 165
540 2 122 393 1918 129
580 2 109 324 1918 116
600 2 104 306 1918 111
120 3 387 5113 1918 400
140 3 376 4855 1918 389
160 3 365 4494 1918 378
200 3 339 3680 1918 352
220 3 329 3280 1918 341
320 3 262 1833 1918 273
360 3 240 1429 1918 251
380 3 227 1284 1918 238
400 3 214 1160 1918 225
420 3 202 1040 1918 213
440 3 195 930 1918 204
460 3 183 838 1918 191
480 3 170 757 1918 178
500 3 162 697 1918 170
560 3 133 538 1918 141
600 3 121 449 1918 129
120 4 441 6638 1918 457
140 4 428 6294 1918 444
160 4 416 5814 1918 432
180 4 401 5251 1918 417
220 4 372 4243 1918 387
240 4 355 3776 1918 369
260 4 336 3395 1918 350
280 4 319 3007 1918 333
300 4 304 2657 1918 318
320 4 293 2367 1918 306
340 4 284 2092 1918 297
380 4 250 1659 1918 263
440 4 214 1210 1918 224
480 4 185 985 1918 194
500 4 177 901 1918 186
520 4 165 815 1918 174
540 4 153 750 1918 162
560 4 146 682 1918 155
600 4 134 571 1918 143
120 5 478 8324 1918 496
140 5 462 7877 1918 479
160 5 450 7247 1918 467
200 5 413 5934 1918 430
220 5 398 5283 1918 414
240 5 379 4721 1918 394
260 5 357 4215 1918 372
280 5 337 3739 1918 352
360 5 279 2320 1918 293
380 5 261 2067 1918 275
400 5 248 1860 1918 262
440 5 223 1480 1918 233
480 5 192 1199 1918 201
500 5 184 1100 1918 193
520 5 172 994 1918 181
540 5 159 917 1918 168
560 5 152 834 1918 161
580 5 145 760 1918 154
140 6 489 9367 1918 506
160 6 476 8627 1918 493
180 6 454 7805 1918 471
200 6 434 7062 1918 451
280 6 350 4445 1918 365
320 6 318 3503 1918 332
340 6 308 3086 1918 322
460 6 214 1553 1918 223
560 6 154 970 1918 163
580 6 147 878 1918 156
120 7 535 11453 1918 554
140 7 516 10844 1918 534
160 7 499 9996 1918 516
240 7 414 6489 1918 429
280 7 365 5123 1918 380
300 7 346 4534 1918 361
320 7 330 4022 1918 344
340 7 318 3541 1918 332
360 7 298 3133 1918 312
400 7 265 2526 1918 279
440 7 237 2010 1918 247
480 7 201 1623 1918 210
540 7 165 1219 1918 174
600 7 144 913 1918 153
120 8 551 12991 1918 572
180 8 490 10258 1918 508
220 8 450 8262 1918 467
260 8 397 6555 1918 412
280 8 372 5818 1918 387
300 8 353 5133 1918 368
320 8 337 4551 1918 351
340 8 324 4016 1918 338
400 8 269 2850 1918 283
560 8 159 1251 1918 168
580 8 151 1127 1918 160
600 8 146 1027 1918 155
