500 1 640 783 1217 997
600 1 640 747 1217 996
700 1 640 702 1217 993
800 1 640 647 1217 992
900 1 638 596 1217 989
1000 1 636 526 1217 982
1100 1 631 462 1217 975
1200 1 628 411 1217 970
1300 1 625 352 1217 961
1400 1 619 298 1217 952
1500 1 608 259 1217 930
1600 1 595 217 1217 912
1700 1 587 178 1217 900
1800 1 570 149 1217 884
1900 1 559 117 1217 864
2000 1 550 99 1217 849
2100 1 542 81 1217 833
2200 1 531 60 1217 816
2300 1 523 46 1217 801
2400 1 514 38 1217 777
2500 1 497 35 1217 750
2600 1 487 28 1217 733
2700 1 476 24 1217 709
2800 1 457 23 1217 684
2900 1 454 17 1217 669
3000 1 448 14 1217 657
3100 1 430 9 1217 633
3200 1 415 8 1217 608
3300 1 404 6 1217 587
3400 1 391 4 1217 566
3500 1 382 4 1217 549
3600 1 371 4 1217 531
3700 1 359 2 1217 510
3800 1 350 2 1217 493
3900 1 348 2 1217 478
4000 1 334 2 1217 461
4100 1 322 2 1217 440
4200 1 312 2 1217 423
4300 1 302 2 1217 408
4400 1 288 1 1217 388
4500 1 279 1 1217 372
4600 1 267 1 1217 353
4700 1 262 1 1217 341
4800 1 253 1 1217 331
4900 1 244 0 1217 322
5000 1 239 0 1217 310
500 2 658 1593 1217 1041
600 2 658 1520 1217 1040
700 2 658 1419 1217 1037
800 2 658 1302 1217 1036
900 2 656 1196 1217 1033
1000 2 653 1067 1217 1025
1100 2 648 937 1217 1015
1200 2 645 812 1217 1008
1300 2 642 702 1217 997
1400 2 635 595 1217 986
1500 2 624 506 1217 962
1600 2 612 424 1217 944
1700 2 604 352 1217 932
1800 2 587 291 1217 916
1900 2 576 229 1217 895
2000 2 566 194 1217 879
2100 2 557 161 1217 862
2200 2 546 122 1217 843
2300 2 538 98 1217 827
2400 2 528 83 1217 802
2500 2 511 66 1217 774
2600 2 500 58 1217 755
2700 2 489 50 1217 731
2800 2 470 45 1217 706
2900 2 466 34 1217 689
3000 2 460 27 1217 677
3100 2 442 20 1217 652
3200 2 427 14 1217 627
3300 2 417 12 1217 606
3400 2 404 6 1217 585
3500 2 394 6 1217 566
3600 2 383 6 1217 547
3700 2 370 4 1217 525
3800 2 361 3 1217 508
3900 2 358 3 1217 493
4000 2 343 3 1217 475
4100 2 332 3 1217 454
4200 2 321 2 1217 436
4300 2 311 2 1217 421
4400 2 296 1 1217 400
4500 2 286 1 1217 383
4600 2 274 1 1217 364
4700 2 269 1 1217 352
4800 2 260 1 1217 342
4900 2 251 0 1217 333
5000 2 245 0 1217 321
500 3 662 2381 1217 1059
600 3 662 2271 1217 1058
700 3 662 2122 1217 1055
800 3 662 1963 1217 1054
900 3 660 1810 1217 1051
1000 3 656 1620 1217 1041
1100 3 651 1429 1217 1029
1200 3 648 1233 1217 1021
1300 3 645 1069 1217 1010
1400 3 638 913 1217 998
1500 3 627 779 1217 972
1600 3 615 644 1217 953
1700 3 607 539 1217 941
1800 3 590 439 1217 924
1900 3 579 349 1217 903
2000 3 569 293 1217 886
2100 3 560 243 1217 869
2200 3 549 192 1217 849
2300 3 541 159 1217 833
2400 3 531 128 1217 808
2500 3 514 96 1217 780
2600 3 503 84 1217 761
2700 3 492 74 1217 737
2800 3 473 65 1217 712
2900 3 469 52 1217 695
3000 3 463 44 1217 683
3100 3 445 35 1217 658
3200 3 430 27 1217 633
3300 3 420 22 1217 612
3400 3 406 16 1217 590
3500 3 396 13 1217 571
3600 3 385 13 1217 551
3700 3 372 9 1217 529
3800 3 363 5 1217 512
3900 3 360 5 1217 497
4000 3 345 5 1217 479
4100 3 334 4 1217 458
4200 3 323 3 1217 440
4300 3 313 3 1217 425
4400 3 297 2 1217 403
4500 3 287 2 1217 385
4600 3 275 2 1217 366
4700 3 270 2 1217 354
4800 3 261 2 1217 344
4900 3 252 1 1217 335
5000 3 246 1 1217 323
500 4 664 3151 1217 1071
600 4 664 3003 1217 1069
700 4 664 2803 1217 1066
800 4 664 2583 1217 1064
900 4 662 2377 1217 1061
1000 4 658 2118 1217 1051
1100 4 653 1874 1217 1039
1200 4 650 1612 1217 1031
1300 4 647 1388 1217 1019
1400 4 639 1184 1217 1006
1500 4 628 1005 1217 979
1600 4 616 833 1217 959
1700 4 607 699 1217 946
1800 4 590 573 1217 929
1900 4 579 470 1217 908
2000 4 569 390 1217 891
2100 4 560 324 1217 874
2200 4 549 264 1217 854
2300 4 541 222 1217 837
2400 4 531 177 1217 811
2500 4 514 133 1217 783
2600 4 503 109 1217 762
2700 4 492 93 1217 738
2800 4 473 79 1217 712
2900 4 469 64 1217 695
3000 4 463 54 1217 683
3100 4 445 44 1217 658
3200 4 430 33 1217 633
3300 4 420 26 1217 612
3400 4 406 20 1217 590
3500 4 396 17 1217 571
3600 4 385 16 1217 551
3700 4 372 12 1217 529
3800 4 363 7 1217 512
3900 4 360 6 1217 497
4000 4 345 6 1217 479
4100 4 334 5 1217 458
4200 4 323 4 1217 440
4300 4 313 4 1217 425
4400 4 297 3 1217 403
4500 4 287 2 1217 385
4600 4 275 2 1217 366
4700 4 270 2 1217 354
4800 4 261 2 1217 344
4900 4 252 1 1217 335
5000 4 246 1 1217 323
500 5 669 3872 1217 1084
600 5 669 3698 1217 1082
700 5 669 3459 1217 1079
800 5 669 3188 1217 1076
900 5 667 2929 1217 1073
1000 5 663 2608 1217 1063
1100 5 657 2294 1217 1050
1200 5 653 1981 1217 1041
1300 5 650 1711 1217 1029
1400 5 642 1459 1217 1015
1500 5 631 1229 1217 987
1600 5 619 1028 1217 966
1700 5 610 860 1217 953
1800 5 593 714 1217 936
1900 5 582 592 1217 915
2000 5 572 492 1217 898
2100 5 562 412 1217 880
2200 5 551 334 1217 860
2300 5 543 278 1217 843
2400 5 533 222 1217 816
2500 5 515 169 1217 787
2600 5 504 136 1217 766
2700 5 493 116 1217 742
2800 5 474 99 1217 716
2900 5 470 82 1217 699
3000 5 464 71 1217 685
3100 5 446 58 1217 660
3200 5 431 42 1217 635
3300 5 421 35 1217 614
3400 5 407 28 1217 592
3500 5 397 23 1217 573
3600 5 386 20 1217 553
3700 5 373 15 1217 531
3800 5 364 10 1217 514
3900 5 361 9 1217 499
4000 5 346 9 1217 481
4100 5 335 8 1217 460
4200 5 324 7 1217 442
4300 5 314 6 1217 426
4400 5 298 5 1217 404
4500 5 288 4 1217 386
4600 5 276 4 1217 367
4700 5 271 4 1217 355
4800 5 262 4 1217 345
4900 5 253 3 1217 336
5000 5 247 3 1217 324
500 6 670 4607 1217 1095
600 6 670 4395 1217 1093
700 6 670 4113 1217 1089
800 6 670 3794 1217 1085
900 6 668 3485 1217 1081
1000 6 663 3098 1217 1069
1100 6 657 2718 1217 1055
1200 6 653 2348 1217 1046
1300 6 650 2020 1217 1034
1400 6 642 1728 1217 1019
1500 6 631 1459 1217 990
1600 6 619 1226 1217 968
1700 6 610 1028 1217 955
1800 6 593 846 1217 938
1900 6 582 698 1217 917
2000 6 572 580 1217 900
2100 6 562 485 1217 881
2200 6 551 389 1217 861
2300 6 543 320 1217 844
2400 6 533 259 1217 816
2500 6 515 201 1217 787
2600 6 504 158 1217 766
2700 6 493 135 1217 742
2800 6 474 113 1217 716
2900 6 470 91 1217 699
3000 6 464 79 1217 685
3100 6 446 65 1217 660
3200 6 431 48 1217 635
3300 6 421 41 1217 614
3400 6 407 33 1217 592
3500 6 397 28 1217 573
3600 6 386 25 1217 553
3700 6 373 18 1217 531
3800 6 364 13 1217 514
3900 6 361 12 1217 499
4000 6 346 12 1217 481
4100 6 335 11 1217 460
4200 6 324 10 1217 442
4300 6 314 9 1217 426
4400 6 298 8 1217 404
4500 6 288 7 1217 386
4600 6 276 7 1217 367
4700 6 271 8 1217 355
4800 6 262 6 1217 345
4900 6 253 4 1217 336
5000 6 247 4 1217 324
500 7 670 5287 1217 1099
600 7 670 5044 1217 1096
700 7 670 4717 1217 1092
800 7 670 4359 1217 1088
900 7 668 3989 1217 1084
1000 7 663 3539 1217 1072
1100 7 657 3110 1217 1058
1200 7 653 2681 1217 1049
1300 7 650 2309 1217 1037
1400 7 642 1974 1217 1022
1500 7 631 1661 1217 993
1600 7 619 1389 1217 971
1700 7 610 1173 1217 957
1800 7 593 964 1217 940
1900 7 582 800 1217 919
2000 7 572 657 1217 901
2100 7 562 545 1217 882
2200 7 551 438 1217 862
2300 7 543 364 1217 845
2400 7 533 294 1217 817
2500 7 515 230 1217 788
2600 7 504 185 1217 767
2700 7 493 155 1217 743
2800 7 474 130 1217 717
2900 7 470 106 1217 700
3000 7 464 93 1217 686
3100 7 446 78 1217 661
3200 7 431 57 1217 636
3300 7 421 48 1217 615
3400 7 407 39 1217 593
3500 7 397 33 1217 574
3600 7 386 30 1217 554
3700 7 373 23 1217 532
3800 7 364 17 1217 515
3900 7 361 15 1217 500
4000 7 346 15 1217 482
4100 7 335 14 1217 461
4200 7 324 13 1217 443
4300 7 314 11 1217 427
4400 7 298 10 1217 405
4500 7 288 9 1217 387
4600 7 276 9 1217 368
4700 7 271 9 1217 356
4800 7 262 7 1217 346
4900 7 253 4 1217 337
5000 7 247 4 1217 325
500 8 671 5924 1217 1109
600 8 671 5639 1217 1106
700 8 671 5271 1217 1102
800 8 671 4866 1217 1098
900 8 668 4441 1217 1093
1000 8 663 3951 1217 1081
1100 8 657 3479 1217 1065
1200 8 653 3009 1217 1056
1300 8 650 2586 1217 1044
1400 8 643 2205 1217 1028
1500 8 632 1851 1217 999
1600 8 619 1542 1217 974
1700 8 610 1301 1217 958
1800 8 593 1073 1217 940
1900 8 582 889 1217 919
2000 8 572 725 1217 901
2100 8 562 603 1217 882
2200 8 551 487 1217 862
2300 8 543 408 1217 845
2400 8 533 331 1217 817
2500 8 515 264 1217 788
2600 8 504 217 1217 767
2700 8 493 180 1217 743
2800 8 474 152 1217 717
2900 8 470 123 1217 700
3000 8 464 104 1217 686
3100 8 446 88 1217 661
3200 8 431 66 1217 636
3300 8 421 52 1217 615
3400 8 407 41 1217 593
3500 8 397 35 1217 574
3600 8 386 32 1217 554
3700 8 373 25 1217 532
3800 8 364 19 1217 515
3900 8 361 17 1217 500
4000 8 346 17 1217 482
4100 8 335 15 1217 461
4200 8 324 14 1217 443
4300 8 314 12 1217 427
4400 8 298 10 1217 405
4500 8 288 9 1217 387
4600 8 276 9 1217 368
4700 8 271 9 1217 356
4800 8 262 7 1217 346
4900 8 253 4 1217 337
5000 8 247 4 1217 325
500 9 671 6556 1217 1115
600 9 671 6234 1217 1112
700 9 671 5829 1217 1108
800 9 671 5387 1217 1104
900 9 668 4912 1217 1099
1000 9 663 4367 1217 1087
1100 9 657 3843 1217 1070
1200 9 653 3320 1217 1061
1300 9 650 2838 1217 1047
1400 9 643 2421 1217 1030
1500 9 632 2033 1217 1001
1600 9 619 1696 1217 976
1700 9 610 1429 1217 960
1800 9 593 1178 1217 941
1900 9 582 972 1217 920
2000 9 572 790 1217 902
2100 9 562 658 1217 883
2200 9 551 532 1217 863
2300 9 543 445 1217 846
2400 9 533 363 1217 818
2500 9 515 288 1217 789
2600 9 504 236 1217 768
2700 9 493 195 1217 743
2800 9 474 166 1217 717
2900 9 470 135 1217 700
3000 9 464 115 1217 686
3100 9 446 97 1217 661
3200 9 431 72 1217 636
3300 9 421 58 1217 615
3400 9 407 47 1217 593
3500 9 397 40 1217 574
3600 9 386 35 1217 554
3700 9 373 26 1217 532
3800 9 364 20 1217 515
3900 9 361 18 1217 500
4000 9 346 18 1217 482
4100 9 335 15 1217 461
4200 9 324 14 1217 443
4300 9 314 12 1217 427
4400 9 298 10 1217 405
4500 9 288 9 1217 387
4600 9 276 9 1217 368
4700 9 271 9 1217 356
4800 9 262 7 1217 346
4900 9 253 4 1217 337
5000 9 247 4 1217 325
500 10 673 7189 1217 1121
600 10 673 6835 1217 1118
700 10 673 6395 1217 1114
800 10 673 5911 1217 1109
900 10 670 5387 1217 1104
1000 10 665 4798 1217 1092
1100 10 659 4232 1217 1075
1200 10 655 3654 1217 1066
1300 10 652 3124 1217 1052
1400 10 645 2671 1217 1035
1500 10 634 2249 1217 1006
1600 10 621 1879 1217 981
1700 10 612 1591 1217 964
1800 10 595 1313 1217 945
1900 10 584 1087 1217 924
2000 10 574 889 1217 906
2100 10 564 738 1217 887
2200 10 553 596 1217 867
2300 10 544 500 1217 849
2400 10 534 409 1217 819
2500 10 516 320 1217 790
2600 10 505 257 1217 769
2700 10 494 211 1217 744
2800 10 475 178 1217 718
2900 10 471 144 1217 701
3000 10 464 121 1217 686
3100 10 446 101 1217 661
3200 10 431 74 1217 636
3300 10 421 60 1217 615
3400 10 407 49 1217 593
3500 10 397 42 1217 574
3600 10 386 36 1217 554
3700 10 373 27 1217 532
3800 10 364 21 1217 515
3900 10 361 18 1217 500
4000 10 346 18 1217 482
4100 10 335 15 1217 461
4200 10 324 14 1217 443
4300 10 314 12 1217 427
4400 10 298 10 1217 405
4500 10 288 9 1217 387
4600 10 276 9 1217 368
4700 10 271 9 1217 356
4800 10 262 7 1217 346
4900 10 253 4 1217 337
5000 10 247 4 1217 325
500 11 673 7829 1217 1128
600 11 673 7437 1217 1125
700 11 673 6959 1217 1121
800 11 673 6422 1217 1112
900 11 670 5840 1217 1107
1000 11 665 5209 1217 1094
1100 11 659 4590 1217 1077
1200 11 655 3972 1217 1068
1300 11 652 3391 1217 1054
1400 11 645 2901 1217 1036
1500 11 634 2437 1217 1007
1600 11 621 2033 1217 982
1700 11 612 1716 1217 965
1800 11 595 1420 1217 946
1900 11 584 1177 1217 925
2000 11 574 970 1217 906
2100 11 564 807 1217 887
2200 11 553 652 1217 867
2300 11 544 549 1217 849
2400 11 534 452 1217 819
2500 11 516 356 1217 790
2600 11 505 288 1217 769
2700 11 494 239 1217 744
2800 11 475 202 1217 718
2900 11 471 165 1217 701
3000 11 464 139 1217 686
3100 11 446 116 1217 661
3200 11 431 87 1217 636
3300 11 421 73 1217 615
3400 11 407 61 1217 593
3500 11 397 53 1217 574
3600 11 386 46 1217 554
3700 11 373 36 1217 532
3800 11 364 29 1217 515
3900 11 361 25 1217 500
4000 11 346 25 1217 482
4100 11 335 20 1217 461
4200 11 324 19 1217 443
4300 11 314 17 1217 427
4400 11 298 15 1217 405
4500 11 288 14 1217 387
4600 11 276 14 1217 368
4700 11 271 14 1217 356
4800 11 262 12 1217 346
4900 11 253 9 1217 337
5000 11 247 9 1217 325
500 12 673 8387 1217 1133
600 12 673 7957 1217 1130
700 12 673 7441 1217 1126
800 12 673 6850 1217 1116
900 12 670 6236 1217 1111
1000 12 665 5555 1217 1098
1100 12 659 4904 1217 1081
1200 12 655 4247 1217 1072
1300 12 652 3629 1217 1058
1400 12 645 3101 1217 1040
1500 12 634 2613 1217 1010
1600 12 621 2165 1217 985
1700 12 612 1834 1217 967
1800 12 595 1518 1217 948
1900 12 584 1261 1217 927
2000 12 574 1039 1217 908
2100 12 564 865 1217 889
2200 12 553 699 1217 868
2300 12 544 592 1217 850
2400 12 534 483 1217 820
2500 12 516 382 1217 791
2600 12 505 307 1217 770
2700 12 494 257 1217 745
2800 12 475 217 1217 718
2900 12 471 180 1217 701
3000 12 464 152 1217 686
3100 12 446 128 1217 661
3200 12 431 97 1217 636
3300 12 421 82 1217 615
3400 12 407 68 1217 593
3500 12 397 60 1217 574
3600 12 386 53 1217 554
3700 12 373 43 1217 532
3800 12 364 36 1217 515
3900 12 361 30 1217 500
4000 12 346 30 1217 482
4100 12 335 23 1217 461
4200 12 324 21 1217 443
4300 12 314 19 1217 427
4400 12 298 17 1217 405
4500 12 288 16 1217 387
4600 12 276 15 1217 368
4700 12 271 15 1217 356
4800 12 262 13 1217 346
4900 12 253 10 1217 337
5000 12 247 10 1217 325
